Extract Format Information From Export Program • qfmtchk
…
The function extract_gal_fmt() can be used to directly extract the format information.

tbl_gal_fmt <- extract_gal_fmt(ps_sql_prg_path = s_sql_export_prg)
tbl_gal_fmt
#> # A tibble: 34 x 3
#>    ColName                   StartPos EndPos
#>    <chr>                        <dbl>  <dbl>
#>  1 rowTier.IDANIMAL                 1     10
#>  2 rowTier.ANIDATENAISSANCE        11     13
#>  3 PA_ANI.nGetBlutanteilBS64       14     16
#>  4 rowGAL.IDVATER2                 17     26
#>  5 dtGebDatETVater                 27     29
#>  6 PA_ANI.nGetBlutanteilBS64       30     32
#>  7 rowGAL.IDVATER                  33     42
#>  8 rowGAL.GEBDATVATER              43     45
#>  9 PA_ANI.nGetBlutanteilBS64       46     48
#> 10 rowGAL.LACNO                    49     50
#> # … with 24 more rows
…
